Week 3 Homework
…
nyc_inc_by_prec %>% mutate(pred = predict(mod))

## # A tibble: 74 x 4
##    PRECINCT INCIDENT_COUNT MURDER_COUNT    pred
##       <dbl>          <dbl>        <dbl>   <dbl>
##  1        1              3            1 0.390  
##  2        5              4            0 0.583  
##  3        6              1            0 0.00351
##  4        7             12            0 2.13   
##  5        9             11            2 1.93   
##  6       10              4            0 0.583  
##  7       13              6            2 0.969  
##  8       14              3            0 0.390  
##  9       18              2            1 0.197  
## 10       19              2            0 0.197  
## #  with 64 more rows
…
In conclusion, because of the spike in shooting incidents and murders in 2020, I suggest the chief of police look at allocating the appropriate amount of resources in the precincts in the below table. Finally, when it comes to bias, I decided not to look at age and race of the perpetrator. Also, the data for age and race were not consistent and in some cases was missing.

data <- nyc_inc_by_prec[order(nyc_inc_by_prec[,"INCIDENT_COUNT"],decreasing = TRUE),]

## Warning in xtfrm.data.frame(x): cannot xtfrm data frames

data

## # A tibble: 74 x 3
##    PRECINCT INCIDENT_COUNT MURDER_COUNT
##       <dbl>          <dbl>        <dbl>
##  1       75            136           29
##  2       73            117           26
##  3       79             79           13
##  4       67             75           13
##  5       40             67            8
##  6       44             62           12
##  7       42             61           14
##  8       77             61           19
##  9       48             60           13
## 10       47             57            7
## #  with 64 more rows
